<?xml version="1.0" standalone="no"?>
<!DOCTYPE svg PUBLIC "-//W3C//DTD SVG 20010904//EN"
 "http://www.w3.org/TR/2001/REC-SVG-20010904/DTD/svg10.dtd">
<svg version="1.0" xmlns="http://www.w3.org/2000/svg"
 width="60.000000pt" height="366.000000pt" viewBox="0 0 60.000000 366.000000"
 preserveAspectRatio="xMidYMid meet">
<metadata>
Created by potrace 1.12, written by Peter Selinger 2001-2015
</metadata>
<g transform="translate(0.000000,366.000000) scale(0.100000,-0.100000)"
fill="#000000" stroke="none">
<path d="M586 3588 c-9 -47 -80 -110 -152 -135 -32 -11 -106 -33 -164 -47
-129 -33 -193 -67 -234 -124 l-31 -44 0 -1346 0 -1347 25 -36 c34 -51 86 -80
225 -129 220 -77 290 -136 329 -280 13 -49 15 140 15 1733 1 983 -1 1787 -3
1787 -2 0 -6 -14 -10 -32z"/>
</g>
</svg>
